                          Unused Program Units Report
===============================================================================

D:\ia5\git\Tests\Materials\CS_Sensors\C++\breakpad_win.cc
    breakpad::ClearCrashKeyValueImpl                                    452
    breakpad::DumpProcess                                               105
    breakpad::DumpProcessAbnormalSignature                              157
    breakpad::InitCrashReporter                                         669
    breakpad::InjectDumpForHangDebugging                                152
    breakpad::InjectDumpProcessWithoutCrash                             146
    breakpad::SetCrashKeyValueImpl                                      422
    breakpad::SetIntegerValue                                           174
    breakpad::ShowRestartDialogIfCrashed                                486
    breakpad::TrimToBreakpadMax                                         168
    SetCrashDumpPath                                                    776

D:\ia5\git\Tests\Materials\CS_Sensors\C++\gpu_internals.cc
    PrintClientInfo                                                     428
    PrintGpuInfo                                                        415

D:\ia5\git\Tests\Materials\CS_Sensors\C++\native_window_win.cc
    AddObserver                                                         886
    AddToolbar                                                          560
    CanMaximize                                                         613
    Close                                                               315
    CreateClientView                                                    585
    CreateNonClientFrameView                                            589
    DeleteDelegate                                                      629
    ExecuteAppCommand                                                   800
    ExecuteWindowsCommand                                               766
    FlashFrame                                                          482
    Focus                                                               323
    GetDialogPosition                                                   880
    GetHostView                                                         872
    GetInitiallyFocusedView                                             685
    GetMaximumDialogSize                                                876
    GetMaximumSize                                                      754
    GetMinimumSize                                                      750
    GetSize                                                             377
    GetWindowAppIcon                                                    661
    GetWindowIcon                                                       677
    GetWindowTitle                                                      625
    HandleKeyboardEvent                                                 715
    HandleSize                                                          787
    Hide                                                                338
    IsKiosk                                                             537
    Layout                                                              726
    Maximize                                                            342
    Minimize                                                            350
    Move                                                                319
    NativeWindowWin                                                     260
    nw::createBadgeIcon                                                 486
    nw::IsParent                                                         81
    nw::NativeWindowClientView::CanClose                                107
    nw::NativeWindowClientView::NativeWindowClientView                   99
    nw::NativeWindowClientView::~NativeWindowClientView                 105
    nw::NativeWindowFrameView::GetBoundsForClientView                   168
    nw::NativeWindowFrameView::GetClassName                             246
    nw::NativeWindowFrameView::GetMaximumSize                           254
    nw::NativeWindowFrameView::GetMinimumSize                           250
    nw::NativeWindowFrameView::GetPreferredSize                         233
    nw::NativeWindowFrameView::GetWindowBoundsForClientBounds           172
    nw::NativeWindowFrameView::GetWindowMask                            228
    nw::NativeWindowFrameView::Init                                     164
    nw::NativeWindowFrameView::Layout                                   240
    nw::NativeWindowFrameView::NativeWindowFrameView                    156
    nw::NativeWindowFrameView::NonClientHitTest                         185
    nw::NativeWindowFrameView::OnPaint                                  243
    nw::NativeWindowFrameView::ResetWindowControls                      134
    nw::NativeWindowFrameView::UpdateWindowIcon                         135
    nw::NativeWindowFrameView::UpdateWindowTitle                        136
    nw::NativeWindowFrameView::~NativeWindowFrameView                   161
    nw::~NativeWindowWin                                                308
    OnFocus                                                             758
    OnNativeFocusChange                                                 641
    OnWidgetBoundsChanged                                               443
    OnWidgetMove                                                        599
    RemoveObserver                                                      891
    Restore                                                             354
    SaveWindowPlacement                                                 809
    SetAlwaysOnTop                                                      436
    SetBadgeLabel                                                       508
    SetInitialFocus                                                     762
    SetKiosk                                                            533
    SetMaximumSize                                                      386
    SetMinimumSize                                                      381
    SetPosition                                                         456
    SetPosition                                                         473
    SetResizable                                                        391
    SetShowInTaskbar                                                    403
    SetSize                                                             373
    SetTitle                                                            555
    SetToolbarButtonEnabled                                             565
    SetToolbarIsLoading                                                 576
    SetToolbarUrlEntry                                                  571
    ShouldDescendIntoChildForEventHandling                              857
    ShouldHandleOnSize                                                  637
    ShouldShowWindowTitle                                               633
    Show                                                                327
    Unmaximize                                                          346
    UpdateDraggableRegions                                              689
    ViewHierarchyChanged                                                737

D:\ia5\git\Tests\Materials\CS_Sensors\C++\native_window_win.h
    nw::NativeWindowWin::AcceleratorPressed                             127
    nw::NativeWindowWin::CanHandleAccelerators                          130
    nw::NativeWindowWin::draggable_region                                60
    nw::NativeWindowWin::InitialFocus                                    97
    nw::NativeWindowWin::toolbar                                         61
    nw::NativeWindowWin::window                                          62

D:\ia5\git\Tests\Materials\CS_Sensors\C++\print_web_view_helper_linux.cc
    PrintWebViewHelper::PrintPageInternal                               147
    PrintWebViewHelper::PrintPagesNative                                 57
    PrintWebViewHelper::RenderPreviewPage                                26

D:\ia5\git\Tests\Materials\CS_Sensors\C++\shell_content_browser_client.h
    content::ShellContentBrowserClient::resource_dispatcher_host_delegate 58
    content::ShellContentBrowserClient::shell_browser_main_parts         61

D:\ia5\git\Tests\Materials\CS_Sensors\C++\shell_devtools_delegate.cc
    content::Target::Activate                                           120
    content::Target::Close                                              131
    content::Target::GetAgentHost                                        96
    content::Target::GetDescription                                      87
    content::Target::GetFaviconUrl                                       89
    content::Target::GetId                                               84
    content::Target::GetLastActivityTime                                 90
    content::Target::GetTitle                                            86
    content::Target::GetType                                             85
    content::Target::GetUrl                                              88
    content::Target::IsAttached                                          93
    content::Target::Target                                             111
    ShellDevToolsDelegate::BundlesFrontendResources                      59
    ShellDevToolsDelegate::CreateNewTarget                              152
    ShellDevToolsDelegate::CreateSocketForTethering                      72
    ShellDevToolsDelegate::EnumerateTargets                             139
    ShellDevToolsDelegate::GetDebugFrontendDir                           63
    ShellDevToolsDelegate::GetDiscoveryPageHTML                          54
    ShellDevToolsDelegate::GetPageThumbnailData                          67
    ShellDevToolsDelegate::ShellDevToolsDelegate                         37
    ShellDevToolsDelegate::Stop                                          49
    ShellDevToolsDelegate::~ShellDevToolsDelegate                        46

D:\ia5\git\Tests\Materials\CS_Sensors\C++\shell_resource_context.cc
    ShellResourceContext::GetHostResolver                                35
    ShellResourceContext::GetRequestContext                              39
    ShellResourceContext::ShellResourceContext                           27
    ShellResourceContext::~ShellResourceContext                          32
