﻿s	1	ZMArgSplit.TZMArgSplitter.AnotherArg	ZMArgSplit.pas	161	26
f	2	ZMArgSplit.TZMArgSplitter.AnotherArg	ZMArgSplit.pas	161	26
s	3	ZMArgSplit.TZMArgSplitter.Arg	ZMArgSplit.pas	167	25
i	4	ZMArgSplit.TZMArgSplitter.Arg	ZMArgSplit.pas	167	25
i	5	ZMArgSplit.TZMArgSplitter.Arg	ZMArgSplit.pas	167	25
f	6	ZMArgSplit.TZMArgSplitter.Arg	ZMArgSplit.pas	167	25
s	7	ZMArgSplit.TZMArgSplitter.Arg	ZMArgSplit.pas	178	25
i	8	ZMArgSplit.TZMArgSplitter.Arg	ZMArgSplit.pas	178	25
i	9	ZMArgSplit.TZMArgSplitter.Arg	ZMArgSplit.pas	178	25
f	10	ZMArgSplit.TZMArgSplitter.Arg	ZMArgSplit.pas	178	25
s	11	ZMArgSplit.TZMArgSplitter.CheckCompression	ZMArgSplit.pas	192	25
i	12	ZMArgSplit.TZMArgSplitter.CheckCompression	ZMArgSplit.pas	192	25
i	13	ZMArgSplit.TZMArgSplitter.CheckCompression	ZMArgSplit.pas	192	25
i	14	ZMArgSplit.TZMArgSplitter.CheckCompression	ZMArgSplit.pas	192	25
f	15	ZMArgSplit.TZMArgSplitter.CheckCompression	ZMArgSplit.pas	192	25
s	16	ZMArgSplit.TZMArgSplitter.CheckDate	ZMArgSplit.pas	200	25
i	17	ZMArgSplit.TZMArgSplitter.CheckDate	ZMArgSplit.pas	200	25
i	18	ZMArgSplit.TZMArgSplitter.CheckDate	ZMArgSplit.pas	200	25
i	19	ZMArgSplit.TZMArgSplitter.CheckDate	ZMArgSplit.pas	200	25
i	20	ZMArgSplit.TZMArgSplitter.CheckDate	ZMArgSplit.pas	200	25
i	21	ZMArgSplit.TZMArgSplitter.CheckDate	ZMArgSplit.pas	200	25
i	22	ZMArgSplit.TZMArgSplitter.CheckDate	ZMArgSplit.pas	200	25
i	23	ZMArgSplit.TZMArgSplitter.CheckDate	ZMArgSplit.pas	200	25
i	24	ZMArgSplit.TZMArgSplitter.CheckDate	ZMArgSplit.pas	200	25
i	25	ZMArgSplit.TZMArgSplitter.CheckDate	ZMArgSplit.pas	200	25
i	26	ZMArgSplit.TZMArgSplitter.CheckDate	ZMArgSplit.pas	200	25
i	27	ZMArgSplit.TZMArgSplitter.CheckDate	ZMArgSplit.pas	200	25
f	28	ZMArgSplit.TZMArgSplitter.CheckDate	ZMArgSplit.pas	200	25
s	29	ZMArgSplit.TZMArgSplitter.CheckExcludes	ZMArgSplit.pas	244	25
f	30	ZMArgSplit.TZMArgSplitter.CheckExcludes	ZMArgSplit.pas	244	25
s	31	ZMArgSplit.TZMArgSplitter.CheckFolder	ZMArgSplit.pas	251	25
i	32	ZMArgSplit.TZMArgSplitter.CheckFolder	ZMArgSplit.pas	251	25
i	33	ZMArgSplit.TZMArgSplitter.CheckFolder	ZMArgSplit.pas	251	25
i	34	ZMArgSplit.TZMArgSplitter.CheckFolder	ZMArgSplit.pas	251	25
i	35	ZMArgSplit.TZMArgSplitter.CheckFolder	ZMArgSplit.pas	251	25
i	36	ZMArgSplit.TZMArgSplitter.CheckFolder	ZMArgSplit.pas	251	25
i	37	ZMArgSplit.TZMArgSplitter.CheckFolder	ZMArgSplit.pas	251	25
f	38	ZMArgSplit.TZMArgSplitter.CheckFolder	ZMArgSplit.pas	251	25
s	39	ZMArgSplit.TZMArgSplitter.CheckInclude	ZMArgSplit.pas	272	25
i	40	ZMArgSplit.TZMArgSplitter.CheckInclude	ZMArgSplit.pas	272	25
i	41	ZMArgSplit.TZMArgSplitter.CheckInclude	ZMArgSplit.pas	272	25
i	42	ZMArgSplit.TZMArgSplitter.CheckInclude	ZMArgSplit.pas	272	25
f	43	ZMArgSplit.TZMArgSplitter.CheckInclude	ZMArgSplit.pas	272	25
i	44	ZMArgSplit.TZMArgSplitter.CheckInclude	ZMArgSplit.pas	272	25
i	45	ZMArgSplit.TZMArgSplitter.CheckInclude	ZMArgSplit.pas	272	25
i	46	ZMArgSplit.TZMArgSplitter.CheckInclude	ZMArgSplit.pas	272	25
i	47	ZMArgSplit.TZMArgSplitter.CheckInclude	ZMArgSplit.pas	272	25
i	48	ZMArgSplit.TZMArgSplitter.CheckInclude	ZMArgSplit.pas	272	25
i	49	ZMArgSplit.TZMArgSplitter.CheckInclude	ZMArgSplit.pas	272	25
i	50	ZMArgSplit.TZMArgSplitter.CheckInclude	ZMArgSplit.pas	272	25
f	51	ZMArgSplit.TZMArgSplitter.CheckInclude	ZMArgSplit.pas	272	25
s	52	ZMArgSplit.TZMArgSplitter.CheckOverWrite	ZMArgSplit.pas	308	25
i	53	ZMArgSplit.TZMArgSplitter.CheckOverWrite	ZMArgSplit.pas	308	25
i	54	ZMArgSplit.TZMArgSplitter.CheckOverWrite	ZMArgSplit.pas	308	25
i	55	ZMArgSplit.TZMArgSplitter.CheckOverWrite	ZMArgSplit.pas	308	25
i	56	ZMArgSplit.TZMArgSplitter.CheckOverWrite	ZMArgSplit.pas	308	25
i	57	ZMArgSplit.TZMArgSplitter.CheckOverWrite	ZMArgSplit.pas	308	25
i	58	ZMArgSplit.TZMArgSplitter.CheckOverWrite	ZMArgSplit.pas	308	25
i	59	ZMArgSplit.TZMArgSplitter.CheckOverWrite	ZMArgSplit.pas	308	25
f	60	ZMArgSplit.TZMArgSplitter.CheckOverWrite	ZMArgSplit.pas	308	25
s	61	ZMArgSplit.TZMArgSplitter.CheckXlatePath	ZMArgSplit.pas	331	25
i	62	ZMArgSplit.TZMArgSplitter.CheckXlatePath	ZMArgSplit.pas	331	25
f	63	ZMArgSplit.TZMArgSplitter.CheckXlatePath	ZMArgSplit.pas	331	25
i	64	ZMArgSplit.TZMArgSplitter.CheckXlatePath	ZMArgSplit.pas	331	25
i	65	ZMArgSplit.TZMArgSplitter.CheckXlatePath	ZMArgSplit.pas	331	25
f	66	ZMArgSplit.TZMArgSplitter.CheckXlatePath	ZMArgSplit.pas	331	25
i	67	ZMArgSplit.TZMArgSplitter.CheckXlatePath	ZMArgSplit.pas	331	25
i	68	ZMArgSplit.TZMArgSplitter.CheckXlatePath	ZMArgSplit.pas	331	25
f	69	ZMArgSplit.TZMArgSplitter.CheckXlatePath	ZMArgSplit.pas	331	25
i	70	ZMArgSplit.TZMArgSplitter.CheckXlatePath	ZMArgSplit.pas	331	25
f	71	ZMArgSplit.TZMArgSplitter.CheckXlatePath	ZMArgSplit.pas	331	25
s	72	ZMArgSplit.TZMArgSplitter.Clear	ZMArgSplit.pas	363	26
f	73	ZMArgSplit.TZMArgSplitter.Clear	ZMArgSplit.pas	363	26
s	74	ZMArgSplit.TZMArgSplitter.GetArg	ZMArgSplit.pas	374	25
i	75	ZMArgSplit.TZMArgSplitter.GetArg	ZMArgSplit.pas	374	25
i	76	ZMArgSplit.TZMArgSplitter.GetArg	ZMArgSplit.pas	374	25
i	77	ZMArgSplit.TZMArgSplitter.GetArg	ZMArgSplit.pas	374	25
i	78	ZMArgSplit.TZMArgSplitter.GetArg	ZMArgSplit.pas	374	25
f	79	ZMArgSplit.TZMArgSplitter.GetArg	ZMArgSplit.pas	374	25
f	80	ZMArgSplit.TZMArgSplitter.GetArg	ZMArgSplit.pas	374	25
s	81	ZMArgSplit.TZMArgSplitter.HandleMain	ZMArgSplit.pas	480	25
i	82	ZMArgSplit.TZMArgSplitter.HandleMain	ZMArgSplit.pas	480	25
i	83	ZMArgSplit.TZMArgSplitter.HandleMain	ZMArgSplit.pas	480	25
i	84	ZMArgSplit.TZMArgSplitter.HandleMain	ZMArgSplit.pas	480	25
i	85	ZMArgSplit.TZMArgSplitter.HandleMain	ZMArgSplit.pas	480	25
i	86	ZMArgSplit.TZMArgSplitter.HandleMain	ZMArgSplit.pas	480	25
i	87	ZMArgSplit.TZMArgSplitter.HandleMain	ZMArgSplit.pas	480	25
i	88	ZMArgSplit.TZMArgSplitter.HandleMain	ZMArgSplit.pas	480	25
i	89	ZMArgSplit.TZMArgSplitter.HandleMain	ZMArgSplit.pas	480	25
i	90	ZMArgSplit.TZMArgSplitter.HandleMain	ZMArgSplit.pas	480	25
i	91	ZMArgSplit.TZMArgSplitter.HandleMain	ZMArgSplit.pas	480	25
i	92	ZMArgSplit.TZMArgSplitter.HandleMain	ZMArgSplit.pas	480	25
i	93	ZMArgSplit.TZMArgSplitter.HandleMain	ZMArgSplit.pas	480	25
i	94	ZMArgSplit.TZMArgSplitter.HandleMain	ZMArgSplit.pas	480	25
i	95	ZMArgSplit.TZMArgSplitter.HandleMain	ZMArgSplit.pas	480	25
i	96	ZMArgSplit.TZMArgSplitter.HandleMain	ZMArgSplit.pas	480	25
i	97	ZMArgSplit.TZMArgSplitter.HandleMain	ZMArgSplit.pas	480	25
i	98	ZMArgSplit.TZMArgSplitter.HandleMain	ZMArgSplit.pas	480	25
i	99	ZMArgSplit.TZMArgSplitter.HandleMain	ZMArgSplit.pas	480	25
f	100	ZMArgSplit.TZMArgSplitter.HandleMain	ZMArgSplit.pas	480	25
s	101	ZMArgSplit.TZMArgSplitter.HandleSwitch	ZMArgSplit.pas	531	25
i	102	ZMArgSplit.TZMArgSplitter.HandleSwitch	ZMArgSplit.pas	531	25
f	103	ZMArgSplit.TZMArgSplitter.HandleSwitch	ZMArgSplit.pas	531	25
i	104	ZMArgSplit.TZMArgSplitter.HandleSwitch	ZMArgSplit.pas	531	25
i	105	ZMArgSplit.TZMArgSplitter.HandleSwitch	ZMArgSplit.pas	531	25
i	106	ZMArgSplit.TZMArgSplitter.HandleSwitch	ZMArgSplit.pas	531	25
i	107	ZMArgSplit.TZMArgSplitter.HandleSwitch	ZMArgSplit.pas	531	25
i	108	ZMArgSplit.TZMArgSplitter.HandleSwitch	ZMArgSplit.pas	531	25
i	109	ZMArgSplit.TZMArgSplitter.HandleSwitch	ZMArgSplit.pas	531	25
i	110	ZMArgSplit.TZMArgSplitter.HandleSwitch	ZMArgSplit.pas	531	25
i	111	ZMArgSplit.TZMArgSplitter.HandleSwitch	ZMArgSplit.pas	531	25
i	112	ZMArgSplit.TZMArgSplitter.HandleSwitch	ZMArgSplit.pas	531	25
i	113	ZMArgSplit.TZMArgSplitter.HandleSwitch	ZMArgSplit.pas	531	25
i	114	ZMArgSplit.TZMArgSplitter.HandleSwitch	ZMArgSplit.pas	531	25
i	115	ZMArgSplit.TZMArgSplitter.HandleSwitch	ZMArgSplit.pas	531	25
i	116	ZMArgSplit.TZMArgSplitter.HandleSwitch	ZMArgSplit.pas	531	25
i	117	ZMArgSplit.TZMArgSplitter.HandleSwitch	ZMArgSplit.pas	531	25
i	118	ZMArgSplit.TZMArgSplitter.HandleSwitch	ZMArgSplit.pas	531	25
i	119	ZMArgSplit.TZMArgSplitter.HandleSwitch	ZMArgSplit.pas	531	25
i	120	ZMArgSplit.TZMArgSplitter.HandleSwitch	ZMArgSplit.pas	531	25
f	121	ZMArgSplit.TZMArgSplitter.HandleSwitch	ZMArgSplit.pas	531	25
i	122	ZMArgSplit.TZMArgSplitter.HandleSwitch	ZMArgSplit.pas	531	25
i	123	ZMArgSplit.TZMArgSplitter.HandleSwitch	ZMArgSplit.pas	531	25
i	124	ZMArgSplit.TZMArgSplitter.HandleSwitch	ZMArgSplit.pas	531	25
i	125	ZMArgSplit.TZMArgSplitter.HandleSwitch	ZMArgSplit.pas	531	25
i	126	ZMArgSplit.TZMArgSplitter.HandleSwitch	ZMArgSplit.pas	531	25
i	127	ZMArgSplit.TZMArgSplitter.HandleSwitch	ZMArgSplit.pas	531	25
i	128	ZMArgSplit.TZMArgSplitter.HandleSwitch	ZMArgSplit.pas	531	25
i	129	ZMArgSplit.TZMArgSplitter.HandleSwitch	ZMArgSplit.pas	531	25
i	130	ZMArgSplit.TZMArgSplitter.HandleSwitch	ZMArgSplit.pas	531	25
i	131	ZMArgSplit.TZMArgSplitter.HandleSwitch	ZMArgSplit.pas	531	25
i	132	ZMArgSplit.TZMArgSplitter.HandleSwitch	ZMArgSplit.pas	531	25
i	133	ZMArgSplit.TZMArgSplitter.HandleSwitch	ZMArgSplit.pas	531	25
i	134	ZMArgSplit.TZMArgSplitter.HandleSwitch	ZMArgSplit.pas	531	25
i	135	ZMArgSplit.TZMArgSplitter.HandleSwitch	ZMArgSplit.pas	531	25
i	136	ZMArgSplit.TZMArgSplitter.HandleSwitch	ZMArgSplit.pas	531	25
i	137	ZMArgSplit.TZMArgSplitter.HandleSwitch	ZMArgSplit.pas	531	25
i	138	ZMArgSplit.TZMArgSplitter.HandleSwitch	ZMArgSplit.pas	531	25
i	139	ZMArgSplit.TZMArgSplitter.HandleSwitch	ZMArgSplit.pas	531	25
i	140	ZMArgSplit.TZMArgSplitter.HandleSwitch	ZMArgSplit.pas	531	25
i	141	ZMArgSplit.TZMArgSplitter.HandleSwitch	ZMArgSplit.pas	531	25
i	142	ZMArgSplit.TZMArgSplitter.HandleSwitch	ZMArgSplit.pas	531	25
i	143	ZMArgSplit.TZMArgSplitter.HandleSwitch	ZMArgSplit.pas	531	25
i	144	ZMArgSplit.TZMArgSplitter.HandleSwitch	ZMArgSplit.pas	531	25
i	145	ZMArgSplit.TZMArgSplitter.HandleSwitch	ZMArgSplit.pas	531	25
i	146	ZMArgSplit.TZMArgSplitter.HandleSwitch	ZMArgSplit.pas	531	25
i	147	ZMArgSplit.TZMArgSplitter.HandleSwitch	ZMArgSplit.pas	531	25
i	148	ZMArgSplit.TZMArgSplitter.HandleSwitch	ZMArgSplit.pas	531	25
i	149	ZMArgSplit.TZMArgSplitter.HandleSwitch	ZMArgSplit.pas	531	25
i	150	ZMArgSplit.TZMArgSplitter.HandleSwitch	ZMArgSplit.pas	531	25
i	151	ZMArgSplit.TZMArgSplitter.HandleSwitch	ZMArgSplit.pas	531	25
i	152	ZMArgSplit.TZMArgSplitter.HandleSwitch	ZMArgSplit.pas	531	25
i	153	ZMArgSplit.TZMArgSplitter.HandleSwitch	ZMArgSplit.pas	531	25
i	154	ZMArgSplit.TZMArgSplitter.HandleSwitch	ZMArgSplit.pas	531	25
i	155	ZMArgSplit.TZMArgSplitter.HandleSwitch	ZMArgSplit.pas	531	25
i	156	ZMArgSplit.TZMArgSplitter.HandleSwitch	ZMArgSplit.pas	531	25
i	157	ZMArgSplit.TZMArgSplitter.HandleSwitch	ZMArgSplit.pas	531	25
i	158	ZMArgSplit.TZMArgSplitter.HandleSwitch	ZMArgSplit.pas	531	25
i	159	ZMArgSplit.TZMArgSplitter.HandleSwitch	ZMArgSplit.pas	531	25
s	160	ZMArgSplit.TZMArgSplitter.Has	ZMArgSplit.pas	617	25
f	161	ZMArgSplit.TZMArgSplitter.Has	ZMArgSplit.pas	617	25
s	162	ZMArgSplit.TZMArgSplitter.Index	ZMArgSplit.pas	622	25
f	163	ZMArgSplit.TZMArgSplitter.Index	ZMArgSplit.pas	622	25
s	164	ZMArgSplit.TZMArgSplitter.SetAllow	ZMArgSplit.pas	628	26
i	165	ZMArgSplit.TZMArgSplitter.SetAllow	ZMArgSplit.pas	628	26
i	166	ZMArgSplit.TZMArgSplitter.SetAllow	ZMArgSplit.pas	628	26
i	167	ZMArgSplit.TZMArgSplitter.SetAllow	ZMArgSplit.pas	628	26
i	168	ZMArgSplit.TZMArgSplitter.SetAllow	ZMArgSplit.pas	628	26
i	169	ZMArgSplit.TZMArgSplitter.SetAllow	ZMArgSplit.pas	628	26
i	170	ZMArgSplit.TZMArgSplitter.SetAllow	ZMArgSplit.pas	628	26
i	171	ZMArgSplit.TZMArgSplitter.SetAllow	ZMArgSplit.pas	628	26
f	172	ZMArgSplit.TZMArgSplitter.SetAllow	ZMArgSplit.pas	628	26
i	173	ZMArgSplit.TZMArgSplitter.SetAllow	ZMArgSplit.pas	628	26
i	174	ZMArgSplit.TZMArgSplitter.SetAllow	ZMArgSplit.pas	628	26
i	175	ZMArgSplit.TZMArgSplitter.SetAllow	ZMArgSplit.pas	628	26
f	176	ZMArgSplit.TZMArgSplitter.SetAllow	ZMArgSplit.pas	628	26
s	177	ZMArgSplit.TZMArgSplitter.SetRaw	ZMArgSplit.pas	656	26
i	178	ZMArgSplit.TZMArgSplitter.SetRaw	ZMArgSplit.pas	656	26
i	179	ZMArgSplit.TZMArgSplitter.SetRaw	ZMArgSplit.pas	656	26
f	180	ZMArgSplit.TZMArgSplitter.SetRaw	ZMArgSplit.pas	656	26
s	181	ZMArgSplit.TZMArgSplitter.SplitRaw	ZMArgSplit.pas	665	26
i	182	ZMArgSplit.TZMArgSplitter.SplitRaw	ZMArgSplit.pas	665	26
i	183	ZMArgSplit.TZMArgSplitter.SplitRaw	ZMArgSplit.pas	665	26
i	184	ZMArgSplit.TZMArgSplitter.SplitRaw	ZMArgSplit.pas	665	26
i	185	ZMArgSplit.TZMArgSplitter.SplitRaw	ZMArgSplit.pas	665	26
i	186	ZMArgSplit.TZMArgSplitter.SplitRaw	ZMArgSplit.pas	665	26
i	187	ZMArgSplit.TZMArgSplitter.SplitRaw	ZMArgSplit.pas	665	26
i	188	ZMArgSplit.TZMArgSplitter.SplitRaw	ZMArgSplit.pas	665	26
i	189	ZMArgSplit.TZMArgSplitter.SplitRaw	ZMArgSplit.pas	665	26
i	190	ZMArgSplit.TZMArgSplitter.SplitRaw	ZMArgSplit.pas	665	26
i	191	ZMArgSplit.TZMArgSplitter.SplitRaw	ZMArgSplit.pas	665	26
i	192	ZMArgSplit.TZMArgSplitter.SplitRaw	ZMArgSplit.pas	665	26
i	193	ZMArgSplit.TZMArgSplitter.SplitRaw	ZMArgSplit.pas	665	26
i	194	ZMArgSplit.TZMArgSplitter.SplitRaw	ZMArgSplit.pas	665	26
i	195	ZMArgSplit.TZMArgSplitter.SplitRaw	ZMArgSplit.pas	665	26
i	196	ZMArgSplit.TZMArgSplitter.SplitRaw	ZMArgSplit.pas	665	26
i	197	ZMArgSplit.TZMArgSplitter.SplitRaw	ZMArgSplit.pas	665	26
f	198	ZMArgSplit.TZMArgSplitter.SplitRaw	ZMArgSplit.pas	665	26
s	199	ZMArgSplit.TZMArgSplitter.UpperOp	ZMArgSplit.pas	710	25
i	200	ZMArgSplit.TZMArgSplitter.UpperOp	ZMArgSplit.pas	710	25
i	201	ZMArgSplit.TZMArgSplitter.UpperOp	ZMArgSplit.pas	710	25
i	202	ZMArgSplit.TZMArgSplitter.UpperOp	ZMArgSplit.pas	710	25
f	203	ZMArgSplit.TZMArgSplitter.UpperOp	ZMArgSplit.pas	710	25
s	204	ZMCompat.CharInSet	ZMCompat.pas	81	10
f	205	ZMCompat.CharInSet	ZMCompat.pas	81	10
s	206	ZMCompat.FreeAndNil	ZMCompat.pas	87	11
i	207	ZMCompat.FreeAndNil	ZMCompat.pas	87	11
i	208	ZMCompat.FreeAndNil	ZMCompat.pas	87	11
f	209	ZMCompat.FreeAndNil	ZMCompat.pas	87	11
s	210	ZMCompat.RaiseLastOSError	ZMCompat.pas	99	11
f	211	ZMCompat.RaiseLastOSError	ZMCompat.pas	99	11
s	212	ZMCompat.ExcludeTrailingBackslash	ZMCompat.pas	106	10
i	213	ZMCompat.ExcludeTrailingBackslash	ZMCompat.pas	106	10
i	214	ZMCompat.ExcludeTrailingBackslash	ZMCompat.pas	106	10
i	215	ZMCompat.ExcludeTrailingBackslash	ZMCompat.pas	106	10
f	216	ZMCompat.ExcludeTrailingBackslash	ZMCompat.pas	106	10
i	217	ZMCompat.IncludeTrailingBackslash	ZMCompat.pas	116	10
i	218	ZMCompat.IncludeTrailingBackslash	ZMCompat.pas	116	10
i	219	ZMCompat.IncludeTrailingBackslash	ZMCompat.pas	116	10
i	220	ZMCompat.IncludeTrailingBackslash	ZMCompat.pas	116	10
s	221	ZMCompat.IncludeTrailingBackslash	ZMCompat.pas	116	10
i	222	ZMCompat.IncludeTrailingBackslash	ZMCompat.pas	116	10
s	223	ZMCompat.IncludeTrailingBackslash	ZMCompat.pas	116	10
i	224	ZMCompat.IncludeTrailingBackslash	ZMCompat.pas	116	10
s	225	ZMCompat.IncludeTrailingBackslash	ZMCompat.pas	116	10
i	226	ZMCompat.IncludeTrailingBackslash	ZMCompat.pas	116	10
s	227	ZMCompat.IncludeTrailingBackslash	ZMCompat.pas	116	10
i	228	ZMCompat.IncludeTrailingBackslash	ZMCompat.pas	116	10
i	229	ZMCompat.IncludeTrailingBackslash	ZMCompat.pas	116	10
i	230	ZMCompat.IncludeTrailingBackslash	ZMCompat.pas	116	10
i	231	ZMCompat.IncludeTrailingBackslash	ZMCompat.pas	116	10
f	232	ZMCompat.IncludeTrailingBackslash	ZMCompat.pas	116	10
s	233	ZMCompat.AnsiSameText	ZMCompat.pas	127	10
f	234	ZMCompat.AnsiSameText	ZMCompat.pas	127	10
s	235	ZMCompat.SameText	ZMCompat.pas	134	10
f	236	ZMCompat.SameText	ZMCompat.pas	134	10
s	237	ZMCompat.TryStrToDateTime	ZMCompat.pas	144	10
i	238	ZMCompat.TryStrToDateTime	ZMCompat.pas	144	10
i	239	ZMCompat.TryStrToDateTime	ZMCompat.pas	144	10
i	240	ZMCompat.TryStrToDateTime	ZMCompat.pas	144	10
i	241	ZMCompat.TryStrToDateTime	ZMCompat.pas	144	10
i	242	ZMCompat.TryStrToDateTime	ZMCompat.pas	144	10
i	243	ZMCompat.TryStrToDateTime	ZMCompat.pas	144	10
i	244	ZMCompat.TryStrToDateTime	ZMCompat.pas	144	10
f	245	ZMCompat.TryStrToDateTime	ZMCompat.pas	144	10
s	246	ZMCompat.TryStrToInt	ZMCompat.pas	165	10
i	247	ZMCompat.TryStrToInt	ZMCompat.pas	165	10
i	248	ZMCompat.TryStrToInt	ZMCompat.pas	165	10
i	249	ZMCompat.TryStrToInt	ZMCompat.pas	165	10
i	250	ZMCompat.TryStrToInt	ZMCompat.pas	165	10
i	251	ZMCompat.TryStrToInt	ZMCompat.pas	165	10
i	252	ZMCompat.TryStrToInt	ZMCompat.pas	165	10
i	253	ZMCompat.TryStrToInt	ZMCompat.pas	165	10
i	254	ZMCompat.TryStrToInt	ZMCompat.pas	165	10
i	255	ZMCompat.TryStrToInt	ZMCompat.pas	165	10
i	256	ZMCompat.TryStrToInt	ZMCompat.pas	165	10
i	257	ZMCompat.TryStrToInt	ZMCompat.pas	165	10
f	258	ZMCompat.TryStrToInt	ZMCompat.pas	165	10
