Исследуемые файлы:
	tapadapter.sys
Для следующих файлов возможно редактирование сегментов кода и исполнение сегментов данных:
	tapadapter.sys
Ниже для каждого файла приведены настроек всех входящих в него сегментов. 
tapadapter.sys
	 Имя: .text
		 Тип: Code
		 Адрес начала: 00011000
		 Адрес окончания: 00014FAA
		 Права:
			 Выполнение: Да
			 Чтение: Да
			 Запись: Нет
	 Имя: .rdata
		 Тип: Initialized Data
		 Адрес начала: 00015000
		 Адрес окончания: 00015347
		 Права:
			 Выполнение: Нет
			 Чтение: Да
			 Запись: Нет
	 Имя: .data
		 Тип: Initialized Data
		 Адрес начала: 00016000
		 Адрес окончания: 0001605B
		 Права:
			 Выполнение: Нет
			 Чтение: Да
			 Запись: Да
	 Имя: INIT
		 Тип: Code
		 Адрес начала: 00017000
		 Адрес окончания: 00017615
		 Права:
			 Выполнение: Да
			 Чтение: Да
			 Запись: Да
	 Имя: .rsrc
		 Тип: Initialized Data
		 Адрес начала: 00018000
		 Адрес окончания: 00018317
		 Права:
			 Выполнение: Нет
			 Чтение: Да
			 Запись: Нет
	 Имя: .reloc
		 Тип: Initialized Data
		 Адрес начала: 00019000
		 Адрес окончания: 000193C5
		 Права:
			 Выполнение: Нет
			 Чтение: Да
			 Запись: Нет
