                             Unused Objects Report
===============================================================================

D:\ia5\git\Tests\Materials\Sources\WayGenerator\C\Zlib\contrib\delphi\ZLib.pas
    ZLib.clDefault                                83
    ZLib.clFastest                                83
    ZLib.clMax                                    83
    ZLib.clNone                                   83
    ZLib.deflate.flush                           243
    ZLib.deflate.strm                            243
    ZLib.deflateEnd.strm                         244
    ZLib.deflateInit_.level                      241
    ZLib.deflateInit_.recsize                    242
    ZLib.deflateInit_.strm                       241
    ZLib.deflateInit_.version                    241
    ZLib.inflate.flush                           249
    ZLib.inflate.strm                            249
    ZLib.inflateEnd.strm                         250
    ZLib.inflateInit_.recsize                    248
    ZLib.inflateInit_.strm                       247
    ZLib.inflateInit_.version                    247
    ZLib.inflateReset.strm                       251
    ZLib.TAlloc.AppData                           19
    ZLib.TAlloc.Items                             19
    ZLib.TAlloc.Size                              19
    ZLib.TCompressionStream.CompressionRate       94
    ZLib.TCompressionStream.OnProgress            95
    ZLib.TCompressionStream.Read.Buffer          439
    ZLib.TCompressionStream.Read.Count           439
    ZLib.TCustomZlibStream.OnProgress             54
    ZLib.TDecompressionStream.OnProgress         123
    ZLib.TDecompressionStream.Write.Buffer       522
    ZLib.TDecompressionStream.Write.Count        522
    ZLib.TFree.AppData                            20
    ZLib.TFree.Block                              20
    ZLib.Z_ASCII                                 194
    ZLib.Z_BINARY                                193
    ZLib.Z_BUF_ERROR                             180
    ZLib.Z_DATA_ERROR                            178
    ZLib.Z_DEFAULT_STRATEGY                      191
    ZLib.Z_DEFLATED                              197
    ZLib.Z_ERRNO                                 176
    ZLib.Z_FILTERED                              188
    ZLib.Z_FULL_FLUSH                            170
    ZLib.Z_HUFFMAN_ONLY                          189
    ZLib.Z_MEM_ERROR                             179
    ZLib.Z_NEED_DICT                             175
    ZLib.Z_OK                                    173
    ZLib.Z_PARTIAL_FLUSH                         168
    ZLib.Z_RLE                                   190
    ZLib.Z_STREAM_ERROR                          177
    ZLib.Z_SYNC_FLUSH                            169
    ZLib.Z_UNKNOWN                               195
    ZLib.Z_VERSION_ERROR                         181
    ZLib.zlibAllocMem.AppData                    254
    ZLib.zlibFreeMem.AppData                     260

D:\ia5\git\Tests\Materials\Sources\WayGenerator\C\Zlib\contrib\dotzlib\DotZLib\ChecksumImpl.cs
    DotZLib.AdlerChecksum.adler32.adler          160
    DotZLib.AdlerChecksum.adler32.data           160
    DotZLib.AdlerChecksum.adler32.length         160
    DotZLib.ChecksumGeneratorBase.Value           53
    DotZLib.CRC32Checksum.crc32.crc              109
    DotZLib.CRC32Checksum.crc32.data             109
    DotZLib.CRC32Checksum.crc32.length           109

D:\ia5\git\Tests\Materials\Sources\WayGenerator\C\Zlib\contrib\dotzlib\DotZLib\CodecBase.cs
    DotZLib.CodecBase.Checksum                   114
    DotZLib.CodecBase.CleanUp.isDisposing        143

D:\ia5\git\Tests\Materials\Sources\WayGenerator\C\Zlib\contrib\dotzlib\DotZLib\Deflater.cs
    DotZLib.Deflater.deflate.flush                25
    DotZLib.Deflater.deflate.sz                   25
    DotZLib.Deflater.deflateEnd.sz                31
    DotZLib.Deflater.deflateInit_.level           22
    DotZLib.Deflater.deflateInit_.size            22
    DotZLib.Deflater.deflateInit_.sz              22
    DotZLib.Deflater.deflateInit_.vs              22
    DotZLib.Deflater.deflateReset.sz              28

D:\ia5\git\Tests\Materials\Sources\WayGenerator\C\Zlib\contrib\dotzlib\DotZLib\DotZLib.cs
    DotZLib.ChecksumGenerator.Update.count       141
    DotZLib.ChecksumGenerator.Update.data        130
    DotZLib.ChecksumGenerator.Update.data        141
    DotZLib.ChecksumGenerator.Update.data        148
    DotZLib.ChecksumGenerator.Update.data        155
    DotZLib.ChecksumGenerator.Update.encoding    155
    DotZLib.ChecksumGenerator.Update.offset      141
    DotZLib.ChecksumGenerator.Value              119
    DotZLib.Codec.Add.count                      195
    DotZLib.Codec.Add.data                       186
    DotZLib.Codec.Add.data                       195
    DotZLib.Codec.Add.offset                     195
    DotZLib.Codec.Checksum                       205
    DotZLib.Codec.DataAvailable                  179
    DotZLib.CompressLevel.Best                    74
    DotZLib.CompressLevel.Default                 66
    DotZLib.CompressLevel.Fastest                 78
    DotZLib.CompressLevel.None                    70
    DotZLib.DataAvailableHandler.count           169
    DotZLib.DataAvailableHandler.data            169
    DotZLib.DataAvailableHandler.startIndex      169
    DotZLib.FlushTypes.Block                      24
    DotZLib.FlushTypes.Full                       24
    DotZLib.FlushTypes.Partial                    24
    DotZLib.FlushTypes.Sync                       24
    DotZLib.Info.HasDebugInfo                    253
    DotZLib.Info.SizeOfOffset                    278
    DotZLib.Info.SizeOfPointer                   273
    DotZLib.Info.SizeOfUInt                      263
    DotZLib.Info.SizeOfULong                     268
    DotZLib.Info.UsesAssemblyCode                258
    DotZLib.ZStream.data_type                     48
    DotZLib.ZStream.msg                           41
    DotZLib.ZStream.opaque                        46
    DotZLib.ZStream.reserved                      50
    DotZLib.ZStream.state                         42
    DotZLib.ZStream.zalloc                        44
    DotZLib.ZStream.zfree                         45

D:\ia5\git\Tests\Materials\Sources\WayGenerator\C\Zlib\contrib\dotzlib\DotZLib\GZipStream.cs
    DotZLib.GZipStream.CanSeek                    92
    DotZLib.GZipStream.cleanUp.isDisposing       131
    DotZLib.GZipStream.gzclose.gzFile             24
    DotZLib.GZipStream.gzgetc.gzFile              33
    DotZLib.GZipStream.gzopen.mode                21
    DotZLib.GZipStream.gzopen.name                21
    DotZLib.GZipStream.gzputc.c                   36
    DotZLib.GZipStream.gzputc.gzFile              36
    DotZLib.GZipStream.gzread.data                30
    DotZLib.GZipStream.gzread.gzFile              30
    DotZLib.GZipStream.gzread.length              30
    DotZLib.GZipStream.gzwrite.data               27
    DotZLib.GZipStream.gzwrite.gzFile             27
    DotZLib.GZipStream.gzwrite.length             27
    DotZLib.GZipStream.Length                    292
    DotZLib.GZipStream.Position                  275
    DotZLib.GZipStream.Position.set.value        281
    DotZLib.GZipStream.Seek.offset               255
    DotZLib.GZipStream.Seek.origin               255
    DotZLib.GZipStream.SetLength.value           243

D:\ia5\git\Tests\Materials\Sources\WayGenerator\C\Zlib\contrib\dotzlib\DotZLib\Inflater.cs
    DotZLib.Inflater.inflate.flush                25
    DotZLib.Inflater.inflate.sz                   25
    DotZLib.Inflater.inflateEnd.sz                31
    DotZLib.Inflater.inflateInit_.size            22
    DotZLib.Inflater.inflateInit_.sz              22
    DotZLib.Inflater.inflateInit_.vs              22
    DotZLib.Inflater.inflateReset.sz              28

D:\ia5\git\Tests\Materials\Sources\WayGenerator\C\Zlib\contrib\infback9\inffix9.h
    distfix                                       99
    lenfix                                        10

D:\ia5\git\Tests\Materials\Sources\WayGenerator\C\Zlib\contrib\infback9\inftree9.c
    inflate9_copyright                            11

D:\ia5\git\Tests\Materials\Sources\WayGenerator\C\Zlib\contrib\inflate86\inffas86.c
    inffast_ar::dist                              96
    inffast_ar::ebp                               80
    inffast_ar::esp                               79

D:\ia5\git\Tests\Materials\Sources\WayGenerator\C\Zlib\contrib\masmx64\inffas8664.c
    inffast_ar::beg                               89
    inffast_ar::bits                              95
    inffast_ar::dcode                             93
    inffast_ar::dist                             101
    inffast_ar::dmask                             99
    inffast_ar::ebp                               85
    inffast_ar::end                               90
    inffast_ar::esp                               84
    inffast_ar::hold                              94
    inffast_ar::in                                86
    inffast_ar::last                              87
    inffast_ar::lcode                             92
    inffast_ar::len                              100
    inffast_ar::lmask                             98
    inffast_ar::out                               88
    inffast_ar::status                           102
    inffast_ar::window                            91
    inffast_ar::write                             97
    inffast_ar::wsize                             96

D:\ia5\git\Tests\Materials\Sources\WayGenerator\C\Zlib\contrib\minizip\iowin32.c
    mode_fopen                                    97
    mode_fopen                                   126
    mode_fopen                                   150
    mode_fopen                                   170

D:\ia5\git\Tests\Materials\Sources\WayGenerator\C\Zlib\contrib\minizip\miniunz.c
    err                                          518
    fout                                         484
    ratio                                        327

D:\ia5\git\Tests\Materials\Sources\WayGenerator\C\Zlib\contrib\minizip\minizip.c
    n                                            232

D:\ia5\git\Tests\Materials\Sources\WayGenerator\C\Zlib\contrib\minizip\zip.c
    linkedlist_datablock_internal_s::unused      119
    zip_copyright                                 98

D:\ia5\git\Tests\Materials\Sources\WayGenerator\C\Zlib\contrib\pascal\example.pas
    example.TESTFILE                              26

D:\ia5\git\Tests\Materials\Sources\WayGenerator\C\Zlib\contrib\pascal\zlibpas.pas
    zlibpas.adler32.adler                        154
    zlibpas.adler32.buf                          154
    zlibpas.adler32.len                          154
    zlibpas.adler32_combine.adler1               155
    zlibpas.adler32_combine.adler2               155
    zlibpas.adler32_combine.len2                 155
    zlibpas.alloc_func.items                      17
    zlibpas.alloc_func.opaque                     17
    zlibpas.alloc_func.size                       17
    zlibpas.compress.dest                        144
    zlibpas.compress.destLen                     144
    zlibpas.compress.source                      145
    zlibpas.compress.sourceLen                   145
    zlibpas.compress2.dest                       146
    zlibpas.compress2.destLen                    146
    zlibpas.compress2.level                      148
    zlibpas.compress2.source                     147
    zlibpas.compress2.sourceLen                  147
    zlibpas.compressBound.sourceLen              149
    zlibpas.crc32.buf                            156
    zlibpas.crc32.crc                            156
    zlibpas.crc32.len                            156
    zlibpas.crc32_combine.crc1                   157
    zlibpas.crc32_combine.crc2                   157
    zlibpas.crc32_combine.len2                   157
    zlibpas.deflate.flush                        107
    zlibpas.deflate.strm                         107
    zlibpas.deflateBound.sourceLen               122
    zlibpas.deflateBound.strm                    122
    zlibpas.deflateCopy.dest                     118
    zlibpas.deflateCopy.source                   118
    zlibpas.deflateEnd.strm                      108
    zlibpas.deflateInit2_.level                  165
    zlibpas.deflateInit2_.memLevel               165
    zlibpas.deflateInit2_.method                 165
    zlibpas.deflateInit2_.strategy               165
    zlibpas.deflateInit2_.stream_size            166
    zlibpas.deflateInit2_.strm                   164
    zlibpas.deflateInit2_.version                166
    zlibpas.deflateInit2_.windowBits             165
    zlibpas.deflateInit_.level                   160
    zlibpas.deflateInit_.stream_size             161
    zlibpas.deflateInit_.strm                    160
    zlibpas.deflateInit_.version                 161
    zlibpas.deflateParams.level                  120
    zlibpas.deflateParams.strategy               120
    zlibpas.deflateParams.strm                   120
    zlibpas.deflatePending.bits                  123
    zlibpas.deflatePending.pending               123
    zlibpas.deflatePending.strm                  123
    zlibpas.deflatePrime.bits                    124
    zlibpas.deflatePrime.strm                    124
    zlibpas.deflatePrime.value                   124
    zlibpas.deflateReset.strm                    119
    zlibpas.deflateSetDictionary.dictionary      116
    zlibpas.deflateSetDictionary.dictLength      117
    zlibpas.deflateSetDictionary.strm            116
    zlibpas.deflateSetHeader.head                125
    zlibpas.deflateSetHeader.strm                125
    zlibpas.deflateTune.good_length              121
    zlibpas.deflateTune.max_chain                121
    zlibpas.deflateTune.max_lazy                 121
    zlibpas.deflateTune.nice_length              121
    zlibpas.deflateTune.strm                     121
    zlibpas.free_func.address                     19
    zlibpas.free_func.opaque                      19
    zlibpas.in_func.buf                           22
    zlibpas.in_func.opaque                        22
    zlibpas.inflate.flush                        110
    zlibpas.inflate.strm                         110
    zlibpas.inflateBack.in_desc                  138
    zlibpas.inflateBack.in_fn                    138
    zlibpas.inflateBack.out_desc                 139
    zlibpas.inflateBack.out_fn                   139
    zlibpas.inflateBack.strm                     138
    zlibpas.inflateBackEnd.strm                  140
    zlibpas.inflateBackInit_.stream_size         171
    zlibpas.inflateBackInit_.strm                169
    zlibpas.inflateBackInit_.version             171
    zlibpas.inflateBackInit_.window              170
    zlibpas.inflateBackInit_.windowBits          170
    zlibpas.inflateCopy.dest                     130
    zlibpas.inflateCopy.source                   130
    zlibpas.inflateEnd.strm                      111
    zlibpas.inflateGetHeader.head                135
    zlibpas.inflateGetHeader.strm                135
    zlibpas.inflateInit2_.stream_size            168
    zlibpas.inflateInit2_.strm                   167
    zlibpas.inflateInit2_.version                168
    zlibpas.inflateInit2_.windowBits             167
    zlibpas.inflateInit_.stream_size             163
    zlibpas.inflateInit_.strm                    162
    zlibpas.inflateInit_.version                 162
    zlibpas.inflateMark.strm                     134
    zlibpas.inflatePrime.bits                    133
    zlibpas.inflatePrime.strm                    133
    zlibpas.inflatePrime.value                   133
    zlibpas.inflateReset.strm                    131
    zlibpas.inflateReset2.strm                   132
    zlibpas.inflateReset2.windowBits             132
    zlibpas.inflateSetDictionary.dictionary      127
    zlibpas.inflateSetDictionary.dictLength      128
    zlibpas.inflateSetDictionary.strm            127
    zlibpas.inflateSync.strm                     129
    zlibpas.out_func.buf                          24
    zlibpas.out_func.opaque                       24
    zlibpas.out_func.size                         24
    zlibpas.uncompress.dest                      150
    zlibpas.uncompress.destLen                   150
    zlibpas.uncompress.source                    151
    zlibpas.uncompress.sourceLen                 151
    zlibpas.Z_ASCII                               99
    zlibpas.Z_BINARY                              97
    zlibpas.Z_BLOCK                               73
    zlibpas.Z_BUF_ERROR                           83
    zlibpas.Z_DEFLATED                           102
    zlibpas.Z_ERRNO                               79
    zlibpas.Z_FIXED                               94
    zlibpas.Z_HUFFMAN_ONLY                        92
    zlibpas.Z_MEM_ERROR                           82
    zlibpas.Z_PARTIAL_FLUSH                       69
    zlibpas.Z_RLE                                 93
    zlibpas.Z_STREAM_ERROR                        80
    zlibpas.Z_SYNC_FLUSH                          70
    zlibpas.Z_TEXT                                98
    zlibpas.Z_TREES                               74
    zlibpas.Z_UNKNOWN                            100
    zlibpas.Z_VERSION_ERROR                       84
    zlibpas.ZLIB_VERNUM                           14

D:\ia5\git\Tests\Materials\Sources\WayGenerator\C\Zlib\contrib\testzlib\testzlib.c
    lCompressedSize                              154

D:\ia5\git\Tests\Materials\Sources\WayGenerator\C\Zlib\contrib\untgz\untgz.c
    tar_buffer::buffer                            91
    tar_header::chksum                            76
    tar_header::devmajor                          83
    tar_header::devminor                          84
    tar_header::gid                               73
    tar_header::gname                             82
    tar_header::linkname                          78
    tar_header::magic                             79
    tar_header::prefix                            85
    tar_header::uid                               72
    tar_header::uname                             81
    tar_header::version                           80

D:\ia5\git\Tests\Materials\Sources\WayGenerator\C\Zlib\deflate.c
    deflate_copyright                             54
    static_tree_desc_s::dummy                    155

D:\ia5\git\Tests\Materials\Sources\WayGenerator\C\Zlib\inffixed.h
    distfix                                       87
    lenfix                                        10

D:\ia5\git\Tests\Materials\Sources\WayGenerator\C\Zlib\inflate.h
    inflate_state::codes                         118
    inflate_state::have                          114
    inflate_state::lens                          116
    inflate_state::ncode                         111
    inflate_state::ndist                         113
    inflate_state::next                          115
    inflate_state::nlen                          112
    inflate_state::window                         96
    inflate_state::work                          117

D:\ia5\git\Tests\Materials\Sources\WayGenerator\C\Zlib\inftrees.c
    inflate_copyright                             11

D:\ia5\git\Tests\Materials\Sources\WayGenerator\C\Zlib\zlib.h
    z_stream_s::reserved                         103

D:\ia5\git\Tests\Materials\Sources\WayGenerator\C\Zlib\zutil.c
    internal_state::dummy                         14
