                          Unused Program Units Report
===============================================================================

F:\IATFS\Tests\Materials\UnderstandImporter\Understand\Source\CoordinatorWindows.cpp
    _tWinMain           186
    AsciiToUnicode      170
    UTF_8_to_wchar_t   1562
