                         Data Dictionary Summary Report
===============================================================================

LoadLibrary   (Function)
   [F:\TaskSeparatorWord\source.txt, 2]