                      Program Unit Cross Reference Report
===============================================================================

LoadLibrary   (Function)
  Declared as: int APIENTRY
    Define [F:\TaskSeparatorWord\source.txt, 2]   F:\TaskSeparatorWord\source.txt
